^C:\USERS\GILLE\DOCUMENTS\GITHUB\GAMEPHYSICSWS17\SIMULATORTESTER\PUBLICMASSSPRINGSYSTEMTESTS.CPP
C:\USERS\GILLE\DOCUMENTS\GITHUB\GAMEPHYSICSWS17\SIMULATORTESTER\WIN32\DEBUG\VC140.PDB
C:\USERS\GILLE\DOCUMENTS\GITHUB\GAMEPHYSICSWS17\SIMULATORTESTER\WIN32\DEBUG\VC140.IDB
C:\USERS\GILLE\DOCUMENTS\GITHUB\GAMEPHYSICSWS17\SIMULATORTESTER\WIN32\DEBUG\PUBLICMASSSPRINGSYSTEMTESTS.OBJ
