^D:\WS_17_18\GAME PHYSICS\GIT REPO\ANTTWEAKBAR\LIB\DEBUG\ANTTWEAKBAR.LIB|D:\WS_17_18\GAME PHYSICS\GIT REPO\DIRECTXTK\BIN\DESKTOP_2015\WIN32\DEBUG\DIRECTXTK.LIB|D:\WS_17_18\GAME PHYSICS\GIT REPO\DXUT11\CORE\BIN\DIRECTXTK_2015\WIN32\DEBUG\DXUT.LIB|D:\WS_17_18\GAME PHYSICS\GIT REPO\DXUT11\OPTIONAL\BIN\DIRECTXTK_2015\WIN32\DEBUG\DXUTOPT.LIB|D:\WS_17_18\GAME PHYSICS\GIT REPO\EFFECTS11\BIN\DESKTOP_2015\WIN32\DEBUG\EFFECTS11D.LIB|D:\WS_17_18\GAME PHYSICS\GIT REPO\SIMULATORTESTER\WIN32\DEBUG\PUBLICMASSSPRINGSYSTEMTESTS.OBJ|D:\WS_17_18\GAME PHYSICS\GIT REPO\WIN32\DEBUG\SIMULATIONS.LIB
/OUT:"D:\WS_17_18\GAME PHYSICS\GIT REPO\WIN32\DEBUG\SIMULATIONSTESTER.DLL" /INCREMENTAL /NOLOGO /LIBPATH:"C:\PROGRAM FILES (X86)\MICROSOFT VISUAL STUDIO 14.0\VC\UNITTEST\LIB" /LIBPATH:"C:\PROGRAM FILES (X86)\VISUAL LEAK DETECTOR\LIB\WIN32" D3DCOMPILER.LIB MF.LIB MFUUID.LIB MFPLAT.LIB MFREADWRITE.LIB COMCTL32.LIB KERNEL32.LIB USER32.LIB GDI32.LIB WINSPOOL.LIB COMDLG32.LIB ADVAPI32.LIB SHELL32.LIB OLE32.LIB OLEAUT32.LIB UUID.LIB ODBC32.LIB ODBCCP32.LIB KERNEL32.LIB USER32.LIB GDI32.LIB WINSPOOL.LIB COMDLG32.LIB ADVAPI32.LIB SHELL32.LIB OLE32.LIB OLEAUT32.LIB UUID.LIB ODBC32.LIB ODBCCP32.LIB /MANIFEST /MANIFESTUAC:"level='asInvoker' uiAccess='false'" /manifest:embed /Debug /PDB:"D:\WS_17_18\GAME PHYSICS\GIT REPO\WIN32\DEBUG\SIMULATIONSTESTER.PDB" /SUBSYSTEM:WINDOWS /TLBID:1 /DYNAMICBASE /NXCOMPAT /IMPLIB:"D:\WS_17_18\GAME PHYSICS\GIT REPO\WIN32\DEBUG\SIMULATIONSTESTER.LIB" /MACHINE:X86 /DLL WIN32\DEBUG\PUBLICMASSSPRINGSYSTEMTESTS.OBJ"D:\WS_17_18\GAME PHYSICS\GIT REPO\ANTTWEAKBAR\LIB\DEBUG\ANTTWEAKBAR.LIB""D:\WS_17_18\GAME PHYSICS\GIT REPO\DIRECTXTK\BIN\DESKTOP_2015\WIN32\DEBUG\DIRECTXTK.LIB""D:\WS_17_18\GAME PHYSICS\GIT REPO\DXUT11\CORE\BIN\DIRECTXTK_2015\WIN32\DEBUG\DXUT.LIB""D:\WS_17_18\GAME PHYSICS\GIT REPO\DXUT11\OPTIONAL\BIN\DIRECTXTK_2015\WIN32\DEBUG\DXUTOPT.LIB""D:\WS_17_18\GAME PHYSICS\GIT REPO\EFFECTS11\BIN\DESKTOP_2015\WIN32\DEBUG\EFFECTS11D.LIB""D:\WS_17_18\GAME PHYSICS\GIT REPO\WIN32\DEBUG\SIMULATIONS.LIB"
^C:\USERS\GILLE\DOCUMENTS\GITHUB\GAMEPHYSICSWS17\ANTTWEAKBAR\LIB\DEBUG\ANTTWEAKBAR.LIB|C:\USERS\GILLE\DOCUMENTS\GITHUB\GAMEPHYSICSWS17\DIRECTXTK\BIN\DESKTOP_2015\WIN32\DEBUG\DIRECTXTK.LIB|C:\USERS\GILLE\DOCUMENTS\GITHUB\GAMEPHYSICSWS17\DXUT11\CORE\BIN\DIRECTXTK_2015\WIN32\DEBUG\DXUT.LIB|C:\USERS\GILLE\DOCUMENTS\GITHUB\GAMEPHYSICSWS17\DXUT11\OPTIONAL\BIN\DIRECTXTK_2015\WIN32\DEBUG\DXUTOPT.LIB|C:\USERS\GILLE\DOCUMENTS\GITHUB\GAMEPHYSICSWS17\EFFECTS11\BIN\DESKTOP_2015\WIN32\DEBUG\EFFECTS11D.LIB|C:\USERS\GILLE\DOCUMENTS\GITHUB\GAMEPHYSICSWS17\SIMULATORTESTER\WIN32\DEBUG\PUBLICMASSSPRINGSYSTEMTESTS.OBJ|C:\USERS\GILLE\DOCUMENTS\GITHUB\GAMEPHYSICSWS17\WIN32\DEBUG\SIMULATIONS.LIB
/OUT:"C:\USERS\GILLE\DOCUMENTS\GITHUB\GAMEPHYSICSWS17\WIN32\DEBUG\SIMULATIONSTESTER.DLL" /INCREMENTAL /NOLOGO /LIBPATH:"C:\PROGRAM FILES (X86)\MICROSOFT VISUAL STUDIO 14.0\VC\UNITTEST\LIB" D3DCOMPILER.LIB MF.LIB MFUUID.LIB MFPLAT.LIB MFREADWRITE.LIB COMCTL32.LIB KERNEL32.LIB USER32.LIB GDI32.LIB WINSPOOL.LIB COMDLG32.LIB ADVAPI32.LIB SHELL32.LIB OLE32.LIB OLEAUT32.LIB UUID.LIB ODBC32.LIB ODBCCP32.LIB KERNEL32.LIB USER32.LIB GDI32.LIB WINSPOOL.LIB COMDLG32.LIB ADVAPI32.LIB SHELL32.LIB OLE32.LIB OLEAUT32.LIB UUID.LIB ODBC32.LIB ODBCCP32.LIB /MANIFEST /MANIFESTUAC:"level='asInvoker' uiAccess='false'" /manifest:embed /Debug /PDB:"C:\USERS\GILLE\DOCUMENTS\GITHUB\GAMEPHYSICSWS17\WIN32\DEBUG\SIMULATIONSTESTER.PDB" /SUBSYSTEM:WINDOWS /TLBID:1 /DYNAMICBASE /NXCOMPAT /IMPLIB:"C:\USERS\GILLE\DOCUMENTS\GITHUB\GAMEPHYSICSWS17\WIN32\DEBUG\SIMULATIONSTESTER.LIB" /MACHINE:X86 /DLL WIN32\DEBUG\PUBLICMASSSPRINGSYSTEMTESTS.OBJC:\USERS\GILLE\DOCUMENTS\GITHUB\GAMEPHYSICSWS17\ANTTWEAKBAR\LIB\DEBUG\ANTTWEAKBAR.LIBC:\USERS\GILLE\DOCUMENTS\GITHUB\GAMEPHYSICSWS17\DIRECTXTK\BIN\DESKTOP_2015\WIN32\DEBUG\DIRECTXTK.LIBC:\USERS\GILLE\DOCUMENTS\GITHUB\GAMEPHYSICSWS17\DXUT11\CORE\BIN\DIRECTXTK_2015\WIN32\DEBUG\DXUT.LIBC:\USERS\GILLE\DOCUMENTS\GITHUB\GAMEPHYSICSWS17\DXUT11\OPTIONAL\BIN\DIRECTXTK_2015\WIN32\DEBUG\DXUTOPT.LIBC:\USERS\GILLE\DOCUMENTS\GITHUB\GAMEPHYSICSWS17\EFFECTS11\BIN\DESKTOP_2015\WIN32\DEBUG\EFFECTS11D.LIBC:\USERS\GILLE\DOCUMENTS\GITHUB\GAMEPHYSICSWS17\WIN32\DEBUG\SIMULATIONS.LIB
