^C:\USERS\GILLE\DOCUMENTS\GITHUB\GAMEPHYSICSWS17\ANTTWEAKBAR\LIB\DEBUG\ANTTWEAKBAR.LIB|C:\USERS\GILLE\DOCUMENTS\GITHUB\GAMEPHYSICSWS17\DIRECTXTK\BIN\DESKTOP_2015\WIN32\DEBUG\DIRECTXTK.LIB|C:\USERS\GILLE\DOCUMENTS\GITHUB\GAMEPHYSICSWS17\DXUT11\CORE\BIN\DIRECTXTK_2015\WIN32\DEBUG\DXUT.LIB|C:\USERS\GILLE\DOCUMENTS\GITHUB\GAMEPHYSICSWS17\DXUT11\OPTIONAL\BIN\DIRECTXTK_2015\WIN32\DEBUG\DXUTOPT.LIB|C:\USERS\GILLE\DOCUMENTS\GITHUB\GAMEPHYSICSWS17\EFFECTS11\BIN\DESKTOP_2015\WIN32\DEBUG\EFFECTS11D.LIB|C:\USERS\GILLE\DOCUMENTS\GITHUB\GAMEPHYSICSWS17\SIMULATIONSRUNNER\DEBUG\MAIN.OBJ|C:\USERS\GILLE\DOCUMENTS\GITHUB\GAMEPHYSICSWS17\WIN32\DEBUG\SIMULATIONS.LIB
C:\USERS\GILLE\DOCUMENTS\GITHUB\GAMEPHYSICSWS17\WIN32\DEBUG\SIMULATIONSRUNNER_2015.ILK
C:\USERS\GILLE\DOCUMENTS\GITHUB\GAMEPHYSICSWS17\WIN32\DEBUG\SIMULATIONSRUNNER_2015.EXE
C:\USERS\GILLE\DOCUMENTS\GITHUB\GAMEPHYSICSWS17\WIN32\DEBUG\SIMULATIONSRUNNER_2015.PDB
